…
Il primo passo è la creazione di un nuovo DataFrame che contine un
**campione dei primi 100 Anime** per clssifica generale (*ranked*).

``` r
top100r <- anime_data[, c(2, 3, 1, 4, 5, 6, 7, 8)] %>%
  top_n(-100, ranked) %>%
  arrange(ranked)
top100r
```

    ## # A tibble: 100 × 8
    ##    ranked title                            uid genre episo…¹ popul…² score link 
    ##     <dbl> <chr>                          <dbl> <chr> <chr>     <dbl> <dbl> <chr>
    ##  1      1 Fullmetal Alchemist: Brotherh…  5114 Acti… 64.0    1615084  9.23 http…
    ##  2      2 Steins;Gate                     9253 Thri… 24.0    1331710  9.11 http…
    ##  3      3 Hunter x Hunter (2011)         11061 Acti… 148.0   1052761  9.11 http…
    ##  4      4 Kimi no Na wa.                 32281 Roma… 1.0     1139878  9.09 http…
    ##  5      5 Shingeki no Kyojin Season 3 P… 38524 Acti… 10.0     446370  9.07 http…
    ##  6      6 Gintama°                       28977 Acti… 51.0     281594  9.05 http…
    ##  7      7 Gintama 2                       9969 Acti… 51.0     278110  9.04 http…
    ##  8      8 Ginga Eiyuu Densetsu             820 Mili… 110.0    175423  9.03 http…
    ##  9      9 3-gatsu no Lion 2nd Season     35180 Dram… 22.0     169544  9.02 http…
    ## 10     10 Koe no Katachi                 28851 Dram… 1.0      842277  9.01 http…
    ## # … with 90 more rows, and abbreviated variable names ¹​episodes, ²​popularity
…
